38_uart_esp32_cpp/wokwi.vcd
$version Generated by Wokwi.com $end
$date Fri, 08 May 2026 15:31:57 GMT $end
$timescale 1ns $end
$scope module logic $end
$var wire 1 ! D0 $end
$upscope $end
$enddefinitions $end
#0
0!
#3130903125
1!
#4233407813
0!
#4233442533
1!
#4233477253
0!
#4233485933
1!
#4250118731
0!
#4250127411
1!
#4250144771
0!
#4250170811
1!
#4250188171
0!
#4250196851
1!
#4433527631
0!
#4433544991
1!
#4433553671
0!
#4433562351
1!
#4433597071
0!
#4433605751
1!
#4500120956
0!
#4500155676
1!
#4500190396
0!
#4500199076
1!
#4600120219
0!
#4600128899
1!
#4600146259
0!
#4600172299
1!
#4600189659
0!
#4600198339
1!
#4733526219
0!
#4733543579
1!
#4733552259
0!
#4733560939
1!
#4733595659
0!
#4733604339
1!
#4750209681
0!
#4750244401
1!
#4750279121
0!
#4750287801
1!
#4850023488
0!
#4850032168
1!
#4850049528
0!
#4850075568
1!
#4850092928
0!
#4850101608
1!
#5000120231
0!
#5000137591
1!
#5000146271
0!
#5000154951
1!
#5000189671
0!
#5000198351
1!
#5066826100
0!
#5066860820
1!
#5066895540
0!
#5066904220
1!
#5150209706
0!
#5150218386
1!
#5150235746
0!
#5150261786
1!
#5150279146
0!
#5150287826
1!
#5316826075
0!
#5316843435
1!
#5316852115
0!
#5316860795
1!
#5316895515
0!
#5316904195
1!
#5366825425
0!
#5366860145
1!
#5366894865
0!
#5366903545
1!
#5483618875
0!
#5483627555
1!
#5483644915
0!
#5483670955
1!
#5483688315
0!
#5483696995
1!
#5650211238
0!
#5650228598
1!
#5650237278
0!
#5650245958
1!
#5650280678
0!
#5650289358
1!
#5683618875
0!
#5683653595
1!
#5683688315
0!
#5683696995
1!
#5783618169
0!
#5783626849
1!
#5783644209
0!
#5783670249
1!
#5783687609
0!
#5783696289
1!
#6583621744
0!
#6583630424
1!
#6583647784
0!
#6583673824
1!
#6583691184
0!
#6583699864
1!
#6616917363
0!
#6616952083
1!
#6616986803
0!
#6616995483
1!
#6666915875
0!
#6666933235
1!
#6666941915
0!
#6666950595
1!
#6666985315
0!
#6666993995
1!
#7050328131
0!
#7050345491
1!
#7050354171
0!
#7050362851
1!
#7050397571
0!
#7050406251
1!
#7083621750
0!
#7083656470
1!
#7083691190
0!
#7083699870
1!
#7316917375
0!
#7316934735
1!
#7316943415
0!
#7316952095
1!
#7316986815
0!
#7316995495
1!
#7333616219
0!
#7333650939
1!
#7333685659
0!
#7333694339
1!
#7483623963
0!
#7483632643
1!
#7483650003
0!
#7483676043
1!
#7483693403
0!
#7483702083
1!
#7600324581
0!
#7600341941
1!
#7600350621
0!
#7600359301
1!
#7600394021
0!
#7600402701
1!
#7650326013
0!
#7650360733
1!
#7650395453
0!
#7650404133
1!
#7783624725
0!
#7783633405
1!
#7783650765
0!
#7783676805
1!
#7783694165
0!
#7783702845
1!
#7917032881
0!
#7917050241
1!
#7917058921
0!
#7917067601
1!
#7917102321
0!
#7917111001
1!
#7950323000
0!
#7950357720
1!
#7950392440
0!
#7950401120
1!
#8200325938
0!
#8200343298
1!
#8200351978
0!
#8200360658
1!
#8200395378
0!
#8200404058
1!
#8233620375
0!
#8233655095
1!
#8233689815
0!
#8233698495
1!
#8367034344
0!
#8367043024
1!
#8367060384
0!
#8367086424
1!
#8367103784
0!
#8367112464
1!
#8517127706
0!
#8517145066
1!
#8517153746
0!
#8517162426
1!
#8517197146
0!
#8517205826
1!
#8550327363
0!
#8550362083
1!
#8550396803
0!
#8550405483
1!
#8667035056
0!
#8667043736
1!
#8667061096
0!
#8667087136
1!
#8667104496
0!
#8667113176
1!
#8800328181
0!
#8800345541
1!
#8800354221
0!
#8800362901
1!
#8800397621
0!
#8800406301
1!
#8850327438
0!
#8850362158
1!
#8850396878
0!
#8850405558
1!
#8967035019
0!
#8967043699
1!
#8967061059
0!
#8967087099
1!
#8967104459
0!
#8967113139
1!
#9100421544
0!
#9100438904
1!
#9100447584
0!
#9100456264
1!
#9100490984
0!
#9100499664
1!
#9133737319
0!
#9133772039
1!
#9133806759
0!
#9133815439
1!
#9250421500
0!
#9250430180
1!
#9250447540
0!
#9250473580
1!
#9250490940
0!
#9250499620
1!
#9717129181
0!
#9717181261
1!
#9717189941
0!
#9717207301
1!
#9900422938
0!
#9900475018
1!
#9900483698
0!
#9900501058
1!
#10100448681
0!
#10100500761
1!
#10100509441
0!
#10100526801
1!
#10283832169
0!
#10283884249
1!
#10283892929
0!
#10283910289
1!
#10466233488
0!
#10466285568
1!
#10466294248
0!
#10466311608
1!
#10649929369
0!
#10649981449
1!
#10649990129
0!
#10650007489
1!
#10833835781
0!
#10833887861
1!
#10833896541
0!
#10833913901
1!
#12749318413
1!
